{
  "name": "Crkbd",
  "vendorProductId": 1179844609,
  "macros": [
    "{KC_LALT,KC_F1}",
    "{KC_LCTL,KC_Z}",
    "{KC_LCTL,KC_X}",
    "{KC_LCTL,KC_C}",
    "{KC_LCTL,KC_V}",
    "{KC_LCTL,KC_S}",
    "{KC_LCTL,KC_Y}",
    "{KC_LCTL,KC_F}",
    "{KC_LCTL,KC_A}",
    "{KC_LCTL,KC_D}",
    "{KC_RALT,KC_TAB}",
    "",
    "",
    "",
    "",
    ""
  ],
  "layers": [
    [
      "KC_TAB",
      "KC_Q",
      "KC_W",
      "KC_E",
      "KC_R",
      "KC_T",
      "KC_LCTL",
      "KC_A",
      "KC_S",
      "KC_D",
      "KC_F",
      "KC_G",
      "KC_LSFT",
      "KC_Z",
      "KC_X",
      "KC_C",
      "KC_V",
      "KC_B",
      "KC_NO",
      "KC_NO",
      "KC_NO",
      "MO(1)",
      "MO(3)",
      "KC_SPC",
      "KC_BSPC",
      "KC_P",
      "KC_O",
      "KC_I",
      "KC_U",
      "KC_Y",
      "KC_QUOT",
      "KC_SCLN",
      "KC_L",
      "KC_K",
      "KC_J",
      "KC_H",
      "KC_RSFT",
      "KC_SLSH",
      "KC_DOT",
      "KC_COMM",
      "KC_M",
      "KC_N",
      "KC_NO",
      "KC_NO",
      "KC_NO",
      "MO(3)",
      "MO(2)",
      "KC_ENT"
    ],
    [
      "KC_ESC",
      "KC_F1",
      "KC_F2",
      "KC_F3",
      "KC_F4",
      "KC_F5",
      "KC_LCTL",
      "MACRO08",
      "MACRO05",
      "MACRO09",
      "MACRO07",
      "KC_NO",
      "KC_LSFT",
      "MACRO01",
      "MACRO02",
      "MACRO03",
      "MACRO04",
      "MACRO06",
      "KC_NO",
      "KC_NO",
      "KC_NO",
      "KC_LALT",
      "KC_NO",
      "KC_SPC",
      "KC_BSPC",
      "KC_F10",
      "KC_END",
      "KC_UP",
      "KC_HOME",
      "KC_F6",
      "KC_PSCR",
      "KC_LALT",
      "KC_RGHT",
      "KC_DOWN",
      "KC_LEFT",
      "KC_DEL",
      "KC_ESC",
      "KC_NO",
      "KC_NO",
      "KC_NO",
      "KC_NO",
      "KC_INS",
      "KC_NO",
      "KC_NO",
      "KC_NO",
      "MO(4)",
      "KC_LALT",
      "KC_ENT"
    ],
    [
      "KC_TAB",
      "KC_EXLM",
      "KC_AT",
      "KC_HASH",
      "KC_DLR",
      "KC_PERC",
      "KC_LCTL",
      "KC_NO",
      "KC_NO",
      "KC_LT",
      "KC_GT",
      "KC_NO",
      "KC_LSFT",
      "KC_NO",
      "KC_NO",
      "KC_NO",
      "KC_NO",
      "KC_NO",
      "KC_NO",
      "KC_NO",
      "KC_NO",
      "KC_LSFT",
      "KC_NO",
      "KC_SPC",
      "KC_BSPC",
      "KC_ASTR",
      "KC_RPRN",
      "KC_LPRN",
      "KC_AMPR",
      "KC_MINS",
      "KC_GRV",
      "KC_BSLS",
      "KC_RBRC",
      "KC_LBRC",
      "KC_EQL",
      "KC_UNDS",
      "KC_TILD",
      "KC_PIPE",
      "KC_RCBR",
      "KC_LCBR",
      "KC_PLUS",
      "KC_CIRC",
      "KC_NO",
      "KC_NO",
      "KC_NO",
      "KC_LALT",
      "KC_NO",
      "KC_ENT"
    ],
    [
      "MACRO10",
      "KC_PSLS",
      "KC_P7",
      "KC_P8",
      "KC_P9",
      "KC_PAST",
      "KC_LSFT",
      "KC_PMNS",
      "KC_P4",
      "KC_P5",
      "KC_P6",
      "KC_PPLS",
      "KC_PDOT",
      "KC_P0",
      "KC_P1",
      "KC_P2",
      "KC_P3",
      "KC_PENT",
      "KC_NO",
      "KC_NO",
      "KC_NO",
      "KC_LGUI",
      "KC_LALT",
      "KC_SPC",
      "KC_BSPC",
      "KC_F5",
      "KC_F4",
      "KC_F3",
      "KC_F2",
      "KC_F1",
      "KC_F12",
      "KC_F11",
      "KC_F10",
      "KC_F9",
      "KC_F8",
      "KC_F7",
      "KC_NO",
      "KC_NO",
      "KC_NO",
      "KC_NO",
      "KC_NO",
      "MACRO00",
      "KC_NO",
      "KC_NO",
      "KC_NO",
      "KC_LALT",
      "KC_LALT",
      "KC_ENT"
    ]
  ]
}